Lat,Lon,url,user
8.461506,-13.222046,https://twitter.com/alexvallenilla/status/707801426068676608,alexvallenila
7.909632,-12.945328,https://twitter.com/trustTomi/status/710773505785241600,Tomi Ajayi
9.665738,-13.568115,https://twitter.com/calestous/status/708907626738880512,Calestous Juma
8.768367,-12.787399,https://twitter.com/sudiptomuk/status/708029582297993216,Sudipto Mukerjee
7.879706,-11.189575,https://twitter.com/nmaithyak/status/710900611907260417,Nicholas Kitonyi
7.955877,-11.738892,https://twitter.com/DMwalunga/status/707451122173218816,Danise
8.890499,-12.035522,https://twitter.com/ldpsci/status/707379956532137984,Lance Dardoc
7.536764,-12.502441,https://twitter.com/KhabarEU/status/710835805955223552,Khabar
7.340675,-11.716919,https://twitter.com/WHO/status/710160370007220225,WHO
9.584501,-11.541138,https://twitter.com/TKaryah/status/710770296068907008,Thomas Karyah